{
  "host_machine": {
    "app_src": "./src",
    "http_port": 8080,
    "mysql_port": 3306
  },
  "mysql": {
    "username": "root",
    "password": "root",
    "database": "project_local",
    "port": 3306
  },
  "nginx": {
    "http_port": 80,
    "root_folder": "public",
    "rewrites": null
  },
  "packages": [ "vim" ],
  "php": {
    "extensions": [
      "php5-cli", "php5-curl", "php5-gd", "php5-ldap", "php5-mysql",
      "php5-sqlite", "php5-xmlrpc", "php5-xsl", "php5-mcrypt", "php5-mysqlnd",
      "php5-ps"
    ]
  },
  "vm": {
    "name": "stage-php-app",
    "memory": 2048
  }
}